%YAML 1.1
%TAG !u! tag:unity3d.com,2011:
--- !u!1045 &1
EditorBuildSettings:
  m_ObjectHideFlags: 0
  serializedVersion: 2
  m_Scenes:
  - enabled: 1
    path: Assets/Scenes/Menu.unity
    guid: 94f6a9e19985a40dd8e10a5cf7a7a55d
  - enabled: 1
    path: Assets/Scenes/InitialVideo.unity
    guid: 90a19db81c1a84745b1b67e13ca618a0
  - enabled: 1
    path: Assets/Scenes/InitialScene.unity
    guid: 7fc7b95f9a192471eaf0a05a83f3e292
  - enabled: 1
    path: Assets/Scenes/Game.unity
    guid: 9105cd9ed100644b28b60783fcf22669
  - enabled: 1
    path: Assets/Scenes/Level2.unity
    guid: d6c9a10ebcada90498a504c540208deb
  - enabled: 1
    path: Assets/Scenes/EndVideo.unity
    guid: 60665ceff8171440585fc9a98a96ab56
  - enabled: 1
    path: Assets/Scenes/SceneLose.unity
    guid: 08af58f4402904b4282b8ceafb4ca3ad
  m_configObjects: {}
